D:\Workspace\Formation\Java\hibernate\src\main\java\be\bstorm\formation\models\Personne.java
D:\Workspace\Formation\Java\hibernate\src\main\java\be\bstorm\formation\demo\Compte.java
D:\Workspace\Formation\Java\hibernate\src\main\java\be\bstorm\formation\models\Adresse.java
D:\Workspace\Formation\Java\hibernate\src\main\java\be\bstorm\formation\models\Personnel.java
D:\Workspace\Formation\Java\hibernate\src\main\java\be\bstorm\formation\Main.java
